Data Analyses
…
# Wilcoxon
wilcoxRESULTS <- purrr::map_dfr(names(wilcoxLIST), function(category) {
  df <- wilcoxLIST[[category]]
  purrr::pmap_dfr(df, function(var1, var2) {
    result <- tryCatch(coxFUN(var1, var2, surv), error = function(e) tibble())
    if (nrow(result) > 0) result$category <- category
    result
  })
})

binRESULTS

# A tibble: 704 × 14
   var1     var2  test  chi_stat chi_df p_value cramersV  dim1  dim2  n_00  n_01
   <chr>    <chr> <chr>    <dbl> <lgl>    <dbl>    <dbl> <int> <int> <int> <int>
 1 AGEbin   CORR… Chi-…    3.83  NA       0.076   0.160      2     2    45    31
 2 RACEbin  CORR… Chi-…    0.130 NA       1       0.0301     2     2     3     2
 3 GENDERb… CORR… Chi-…    2.29  NA       0.143   0.126      2     2    26    16
 4 EDUCATI… CORR… Chi-…    6.03  NA       0.021   0.200      2     2    22     9
 5 DEGREEb… CORR… Chi-…    4.68  NA       0.033   0.177      2     2    23    11
 6 TWSbin   CORR… Chi-…    0.646 NA       0.518   0.0656     2     2    66    59
 7 COURSEb… CORR… Chi-…    2.05  NA       0.197   0.117      2     2    51    40
 8 SELFTIT… CORR… Chi-…    3.98  NA       0.055   0.163      2     2    22    11
 9 LICENSE… CORR… Chi-…   18.0   NA       0.001   0.346      2     2    35    10
10 COURSET… CORR… Chi-…    0.224 NA       0.792   0.0616     2     2    11    16
# ℹ 694 more rows
# ℹ 3 more variables: n_10 <int>, n_11 <int>, category <chr>

wilcoxRESULTS

# A tibble: 137 × 10
   var1        var2  test  group1 group2 median1 median2 W_stat p_value category
   <chr>       <chr> <chr> <chr>  <chr>    <dbl>   <dbl>  <dbl>   <dbl> <chr>   
 1 AGEbin      CORR… Wilc… 0      1          6         7  2300. 4.80e-2 DEMO_KN…
 2 RACEbin     CORR… Wilc… 0      1          6         6   329  8.40e-1 DEMO_KN…
 3 GENDERbin   CORR… Wilc… 0      1          5         7  1590. 1.27e-2 DEMO_KN…
 4 EDUCATIONb… CORR… Wilc… 0      1          5         7  1102  4.02e-4 DEMO_KN…
 5 DEGREEbin   CORR… Wilc… 0      1          5.5       7  1360. 4.83e-3 DEMO_KN…
 6 TWSbin      CORR… Wilc… 0      1          6         7  1384. 3.55e-1 DEMO_KN…
 7 COURSEbin   CORR… Wilc… 0      1          6         7  2370  2.15e-1 DEMO_KN…
 8 SELFTITLEb… CORR… Wilc… 0      1          6         7  1437  2.16e-2 DEMO_KN…
 9 LICENSEbin  CORR… Wilc… 0      1          5         7  1300. 7.72e-6 DEMO_KN…
10 COURSETIME… CORR… Wilc… 0      1          7         7   486. 3.98e-1 DEMO_KN…
# ℹ 127 more rows
…
