Descriptive statistics
…
Show Code

COUNTIESsel = selFUN(surv, COUNTIES)
COUNTIESsel

# A tibble: 68 × 2
   response   Count
   <chr>      <int>
 1 Lee           30
 2 Mobile        22
 3 Baldwin       19
 4 Jackson       19
 5 Lauderdale    18
 6 Tuscaloosa    18
 7 Barbour       17
 8 Hale          16
 9 Montgomery    16
10 Dallas        15
# ℹ 58 more rows
…
