Processing, Summarizing, and Converting Responses
…
RSCOUNTIES = splitCOUNTIES %>%
    count(COUNTIES) %>%
    rename(count = n) %>%
  mutate(proportion = count / totCOUNTIES)

sum(RSCOUNTIES$proportion)

[1] 1

Show Code

RSCOUNTIES

# A tibble: 68 × 3
   COUNTIES   count proportion
   <chr>      <int>      <dbl>
 1 ""            12    0.0164 
 2 "Autauga"     13    0.0178 
 3 "Baldwin"     19    0.0260 
 4 "Barbour"     17    0.0233 
 5 "Bibb"        14    0.0192 
 6 "Blount"       8    0.0110 
 7 "Bullock"     11    0.0151 
 8 "Butler"       4    0.00548
 9 "Calhoun"     10    0.0137 
10 "Chambers"     9    0.0123 
# ℹ 58 more rows
…
