Processing, Summarizing, and Converting Responses
…
RSCOUNTIES = splitCOUNTIES %>%
    count(COUNTIES) %>%
    rename(count = n) %>%
  mutate(proportion = count / totCOUNTIES)

sum(RSCOUNTIES$proportion)

[1] 1

Show Code

RSCOUNTIES

# A tibble: 68 × 3
   COUNTIES   count proportion
   <chr>      <int>      <dbl>
 1 ""            13    0.0173 
 2 "Autauga"     13    0.0173 
 3 "Baldwin"     23    0.0305 
 4 "Barbour"     16    0.0212 
 5 "Bibb"        14    0.0186 
 6 "Blount"       8    0.0106 
 7 "Bullock"     10    0.0133 
 8 "Butler"       5    0.00664
 9 "Calhoun"     10    0.0133 
10 "Chambers"     9    0.0120 
# ℹ 58 more rows
…
